Hvordan klarer de politiske partier sig på Facebook? | Open and Efficient Research
…
  left_join(no_followers) %>% 
  unnest() %>% 
  mutate(created_time = as_datetime(created_time)) %>% 
  mutate(type = case_when(
    type == "link" ~ "Link",
    type == "photo" ~ "Billede",
    type == "video" ~ "Video",
    TRUE ~ type
  )) %>% 
  select(
    partinavne, blok, no_followers, created_time, type, 
    Likes = "likes_count", Delinger = "shares_count", Kommentarer = "comments_count"
    )

## # A tibble: 4,719 x 8
##   partinavne  blok no_followers        created_time    type Likes Delinger
##        <chr> <chr>        <dbl>              <dttm>   <chr> <dbl>    <dbl>
## 1    Venstre   Blå        68212 2017-09-17 22:00:00 Billede   212       32
## 2    Venstre   Blå        68212 2017-09-17 22:00:00    Link   283       33
## 3    Venstre   Blå        68212 2017-09-16 22:00:00 Billede    78        9
## 4    Venstre   Blå        68212 2017-09-16 22:00:00 Billede   318       27
## 5    Venstre   Blå        68212 2017-09-15 22:00:00 Billede   201       16
## # ... with 4,714 more rows, and 1 more variables: Kommentarer <dbl>
…
